module swagger_example

go 1.18

require (
	github.com/go-openapi/errors v0.20.3
	github.com/go-openapi/loads v0.21.2
	github.com/go-openapi/runtime v0.24.1
	github.com/go-openapi/spec v0.20.7
	github.com/go-openapi/strfmt v0.21.3
	github.com/go-openapi/swag v0.22.3
	github.com/go-openapi/validate v0.22.0
	github.com/jessevdk/go-flags v1.5.0
	golang.org/x/net v0.0.0-20220927171203-f486391704dc
)

require (
	github.com/asaskevich/govalidator v0.0.0-20210307081110-f21760c49a8d // indirect
	github.com/docker/go-units v0.4.0 // indirect
	github.com/go-openapi/analysis v0.21.4 // indirect
	github.com/go-openapi/jsonpointer v0.19.5 // indirect
	github.com/go-openapi/jsonreference v0.20.0 // indirect
	github.com/josharian/intern v1.0.0 // indirect
	github.com/mailru/easyjson v0.7.7 // indirect
	github.com/mitchellh/mapstructure v1.4.3 // indirect
	github.com/oklog/ulid v1.3.1 // indirect
	go.mongodb.org/mongo-driver v1.10.0 // indirect
	golang.org/x/sys v0.0.0-20220728004956-3c1f35247d10 // indirect
	gopkg.in/yaml.v3 v3.0.1 // indirect
)
